…
#### register

Here are some examples of very basic files stored within the package:

::: {.sourcecode}
r

library(\"ledger\") options(width=180) ledger\_file \<-
system.file(\"extdata\", \"example.ledger\", package = \"ledger\")
register(ledger\_file)
:::

    ## # A tibble: 42 x 8
    ##    date       mark  payee       description                     account                    amount commodity comment
    ##    <date>     <chr> <chr>       <chr>                           <chr>                       <dbl> <chr>     <chr>  
    ##  1 2015-12-31 *     <NA>        Opening Balances                Assets:JT-Checking          5000  USD       <NA>   
    ##  2 2015-12-31 *     <NA>        Opening Balances                Equity:Opening             -5000  USD       <NA>   
    ##  3 2016-01-01 *     Landlord    Rent                            Assets:JT-Checking         -1500  USD       <NA>   
    ##  4 2016-01-01 *     Landlord    Rent                            Expenses:Shelter:Rent       1500  USD       <NA>   
    ##  5 2016-01-01 *     Brokerage   Buy Stock                       Assets:JT-Checking         -1000  USD       <NA>   
    ##  6 2016-01-01 *     Brokerage   Buy Stock                       Equity:Transfer             1000  USD       <NA>   
    ##  7 2016-01-01 *     Brokerage   Buy Stock                       Assets:JT-Brokerage            4  SP        <NA>   
    ##  8 2016-01-01 *     Brokerage   Buy Stock                       Equity:Transfer            -1000  USD       <NA>   
    ##  9 2016-01-01 *     Supermarket Grocery store ;; Link: ^grocery Expenses:Food:Grocery        501. USD       <NA>   
    ## 10 2016-01-01 *     Supermarket Grocery store ;; Link: ^grocery Liabilities:JT-Credit-Card  -501. USD       <NA>   
    ## # … with 32 more rows

::: {.sourcecode}
r

hledger\_file \<- system.file(\"extdata\", \"example.hledger\", package
= \"ledger\") register(hledger\_file)
:::

    ## # A tibble: 42 x 11
    ##    date       mark  payee       description      account                    amount commodity historical_cost hc_commodity market_value mv_commodity
    ##    <date>     <chr> <chr>       <chr>            <chr>                       <dbl> <chr>               <dbl> <chr>               <dbl> <chr>       
    ##  1 2015-12-31 *     <NA>        Opening Balances Assets:JT-Checking          5000  USD                 5000  USD                 5000  USD         
    ##  2 2015-12-31 *     <NA>        Opening Balances Equity:Opening             -5000  USD                -5000  USD                -5000  USD         
    ##  3 2016-01-01 *     Landlord    Rent             Assets:JT-Checking         -1500  USD                -1500  USD                -1500  USD         
    ##  4 2016-01-01 *     Landlord    Rent             Expenses:Shelter:Rent       1500  USD                 1500  USD                 1500  USD         
    ##  5 2016-01-01 *     Brokerage   Buy Stock        Assets:JT-Checking         -1000  USD                -1000  USD                -1000  USD         
    ##  6 2016-01-01 *     Brokerage   Buy Stock        Equity:Transfer             1000  USD                 1000  USD                 1000  USD         
    ##  7 2016-01-01 *     Brokerage   Buy Stock        Assets:JT-Brokerage            4  SP                  1000  USD                 2000  USD         
    ##  8 2016-01-01 *     Brokerage   Buy Stock        Equity:Transfer            -1000  USD                -1000  USD                -1000  USD         
    ##  9 2016-01-01 *     Supermarket Grocery store    Expenses:Food:Grocery        501. USD                  501. USD                  501. USD         
    ## 10 2016-01-01 *     Supermarket Grocery store    Liabilities:JT-Credit-Card  -501. USD                 -501. USD                 -501. USD         
    ## # … with 32 more rows

::: {.sourcecode}
r

beancount\_file \<- system.file(\"extdata\", \"example.beancount\",
package = \"ledger\") register(beancount\_file)
:::

    ## # A tibble: 42 x 12
    ##    date       mark  payee       description      account                    amount commodity historical_cost hc_commodity market_value mv_commodity tags 
    ##    <chr>      <chr> <chr>       <chr>            <chr>                       <dbl> <chr>               <dbl> <chr>               <dbl> <chr>        <chr>
    ##  1 2015-12-31 *     ""          Opening Balances Assets:JT-Checking          5000  USD                 5000  USD                 5000  USD          ""   
    ##  2 2015-12-31 *     ""          Opening Balances Equity:Opening             -5000  USD                -5000  USD                -5000  USD          ""   
    ##  3 2016-01-01 *     Landlord    Rent             Assets:JT-Checking         -1500  USD                -1500  USD                -1500  USD          ""   
    ##  4 2016-01-01 *     Landlord    Rent             Expenses:Shelter:Rent       1500  USD                 1500  USD                 1500  USD          ""   
    ##  5 2016-01-01 *     Brokerage   Buy Stock        Assets:JT-Checking         -1000  USD                -1000  USD                -1000  USD          ""   
    ##  6 2016-01-01 *     Brokerage   Buy Stock        Equity:Transfer             1000  USD                 1000  USD                 1000  USD          ""   
    ##  7 2016-01-01 *     Brokerage   Buy Stock        Assets:JT-Brokerage            4  SP                  1000  USD                 2000  USD          ""   
    ##  8 2016-01-01 *     Brokerage   Buy Stock        Equity:Transfer            -1000  USD                -1000  USD                -1000  USD          ""   
    ##  9 2016-01-01 *     Supermarket Grocery store    Expenses:Food:Grocery        501. USD                  501. USD                  501. USD          ""   
    ## 10 2016-01-01 *     Supermarket Grocery store    Liabilities:JT-Credit-Card  -501. USD                 -501. USD                 -501. USD          ""   
    ## # … with 32 more rows

Here is an example reading in a beancount file generated by
`bean-example`:

::: {.sourcecode}
r

bean\_example\_file \<- tempfile(fileext = \".beancount\")
system(paste(\"bean-example -o\", bean\_example\_file),
ignore.stderr=TRUE) df \<- register(bean\_example\_file)
options(width=240) print(df)
:::

    ## # A tibble: 2,674 x 12
    ##    date       mark  payee                description                          account                       amount commodity historical_cost hc_commodity market_value mv_commodity tags 
    ##    <chr>      <chr> <chr>                <chr>                                <chr>                          <dbl> <chr>               <dbl> <chr>               <dbl> <chr>        <chr>
    ##  1 2017-01-01 *     ""                   Opening Balance for checking account Assets:US:BofA:Checking        3704. USD                 3704. USD                 3704. USD          ""   
    ##  2 2017-01-01 *     ""                   Opening Balance for checking account Equity:Opening-Balances       -3704. USD                -3704. USD                -3704. USD          ""   
    ##  3 2017-01-01 *     ""                   Allowed contributions for one year   Income:US:Federal:PreTax401k -18500  IRAUSD            -18500  IRAUSD            -18500  IRAUSD       ""   
    ##  4 2017-01-01 *     ""                   Allowed contributions for one year   Assets:US:Federal:PreTax401k  18500  IRAUSD             18500  IRAUSD             18500  IRAUSD       ""   
    ##  5 2017-01-04 *     BANK FEES            Monthly bank fee                     Assets:US:BofA:Checking          -4  USD                   -4  USD                   -4  USD          ""   
    ##  6 2017-01-04 *     BANK FEES            Monthly bank fee                     Expenses:Financial:Fees           4  USD                    4  USD                    4  USD          ""   
    ##  7 2017-01-04 *     RiverBank Properties Paying the rent                      Assets:US:BofA:Checking       -2400  USD                -2400  USD                -2400  USD          ""   
    ##  8 2017-01-04 *     RiverBank Properties Paying the rent                      Expenses:Home:Rent             2400  USD                 2400  USD                 2400  USD          ""   
    ##  9 2017-01-05 *     Babble               Payroll                              Assets:US:BofA:Checking        1351. USD                 1351. USD                 1351. USD          ""   
    ## 10 2017-01-05 *     Babble               Payroll                              Assets:US:Vanguard:Cash        1200  USD                 1200  USD                 1200  USD          ""   
    ## # … with 2,664 more rows
…
