…
Here are some examples of very basic files stored within the package:


.. code:: r
    

    library("ledger")
    ledger_file <- system.file("extdata", "example.ledger", package = "ledger") 
    register(ledger_file)


::

    ## # A tibble: 42 × 8
    ##    date       mark  payee       description     account amount commodity comment
    ##    <date>     <chr> <chr>       <chr>           <chr>    <dbl> <chr>     <chr>  
    ##  1 2015-12-31 *     <NA>        Opening Balanc… Assets…  5000  USD       ""     
    ##  2 2015-12-31 *     <NA>        Opening Balanc… Equity… -5000  USD       ""     
    ##  3 2016-01-01 *     Landlord    Rent            Assets… -1500  USD       ""     
    ##  4 2016-01-01 *     Landlord    Rent            Expens…  1500  USD       ""     
    ##  5 2016-01-01 *     Brokerage   Buy Stock       Assets… -1000  USD       ""     
    ##  6 2016-01-01 *     Brokerage   Buy Stock       Equity…  1000  USD       ""     
    ##  7 2016-01-01 *     Brokerage   Buy Stock       Assets…     4  SP        ""     
    ##  8 2016-01-01 *     Brokerage   Buy Stock       Equity… -1000  USD       ""     
    ##  9 2016-01-01 *     Supermarket Grocery store   Expens…   501. USD       "Link:…
    ## 10 2016-01-01 *     Supermarket Grocery store   Liabil…  -501. USD       "Link:…
    ## # ℹ 32 more rows


.. code:: r
    

    hledger_file <- system.file("extdata", "example.hledger", package = "ledger") 
    register(hledger_file)


::

    ## # A tibble: 42 × 12
    ##    date       mark  payee   description account amount commodity historical_cost
    ##    <date>     <chr> <chr>   <chr>       <chr>    <dbl> <chr>               <dbl>
    ##  1 2015-12-31 *     <NA>    Opening Ba… Assets…  5000  USD                 5000 
    ##  2 2015-12-31 *     <NA>    Opening Ba… Equity… -5000  USD                -5000 
    ##  3 2016-01-01 *     Landlo… Rent        Assets… -1500  USD                -1500 
    ##  4 2016-01-01 *     Landlo… Rent        Expens…  1500  USD                 1500 
    ##  5 2016-01-01 *     Broker… Buy Stock   Assets… -1000  USD                -1000 
    ##  6 2016-01-01 *     Broker… Buy Stock   Equity…  1000  USD                 1000 
    ##  7 2016-01-01 *     Broker… Buy Stock   Assets…     4  SP                  1000 
    ##  8 2016-01-01 *     Broker… Buy Stock   Equity… -1000  USD                -1000 
    ##  9 2016-01-01 *     Superm… Grocery st… Expens…   501. USD                  501.
    ## 10 2016-01-01 *     Superm… Grocery st… Liabil…  -501. USD                 -501.
    ## # ℹ 32 more rows
    ## # ℹ 4 more variables: hc_commodity <chr>, market_value <dbl>,
    ## #   mv_commodity <chr>, id <chr>


.. code:: r
    

    beancount_file <- system.file("extdata", "example.beancount", package = "ledger") 
    register(beancount_file)


::

    ## # A tibble: 42 × 13
    ##    date       mark  payee   description account amount commodity historical_cost
    ##    <date>     <chr> <chr>   <chr>       <chr>    <dbl> <chr>               <dbl>
    ##  1 2015-12-31 *     ""      Opening Ba… Assets…  5000  USD                 5000 
    ##  2 2015-12-31 *     ""      Opening Ba… Equity… -5000  USD                -5000 
    ##  3 2016-01-01 *     "Landl… Rent        Assets… -1500  USD                -1500 
    ##  4 2016-01-01 *     "Landl… Rent        Expens…  1500  USD                 1500 
    ##  5 2016-01-01 *     "Broke… Buy Stock   Assets… -1000  USD                -1000 
    ##  6 2016-01-01 *     "Broke… Buy Stock   Equity…  1000  USD                 1000 
    ##  7 2016-01-01 *     "Broke… Buy Stock   Assets…     4  SP                  1000 
    ##  8 2016-01-01 *     "Broke… Buy Stock   Equity… -1000  USD                -1000 
    ##  9 2016-01-01 *     "Super… Grocery st… Expens…   501. USD                  501.
    ## 10 2016-01-01 *     "Super… Grocery st… Liabil…  -501. USD                 -501.
    ## # ℹ 32 more rows
    ## # ℹ 5 more variables: hc_commodity <chr>, market_value <dbl>,
    ## #   mv_commodity <chr>, tags <chr>, id <chr>
Here is an example reading in a beancount file generated by ``bean-example``:


.. code:: r
    

    bean_example_file <- tempfile(fileext = ".beancount")
    system(paste("bean-example -o", bean_example_file), ignore.stderr=TRUE)
    df <- register(bean_example_file)
    print(df)


::

    ## # A tibble: 2,907 × 13
    ##    date       mark  payee  description account  amount commodity historical_cost
    ##    <date>     <chr> <chr>  <chr>       <chr>     <dbl> <chr>               <dbl>
    ##  1 2022-01-01 *     ""     Opening Ba… Assets…  3.78e3 USD                3783. 
    ##  2 2022-01-01 *     ""     Opening Ba… Equity… -3.78e3 USD               -3783. 
    ##  3 2022-01-01 *     ""     Allowed co… Income… -1.85e4 IRAUSD           -18500  
    ##  4 2022-01-01 *     ""     Allowed co… Assets…  1.85e4 IRAUSD            18500  
    ##  5 2022-01-04 *     "BANK… Monthly ba… Assets… -4   e0 USD                  -4  
    ##  6 2022-01-04 *     "BANK… Monthly ba… Expens…  4   e0 USD                   4  
    ##  7 2022-01-05 *     "Rive… Paying the… Assets… -2.4 e3 USD               -2400  
    ##  8 2022-01-05 *     "Rive… Paying the… Expens…  2.4 e3 USD                2400  
    ##  9 2022-01-05 *     "Jewe… Eating out  Liabil… -3.74e1 USD                 -37.4
    ## 10 2022-01-05 *     "Jewe… Eating out  Expens…  3.74e1 USD                  37.4
    ## # ℹ 2,897 more rows
    ## # ℹ 5 more variables: hc_commodity <chr>, market_value <dbl>,
    ## #   mv_commodity <chr>, tags <chr>, id <chr>
…
